8 0.2 200
Efficiency with pileup  for #Delta Z = 0.20 mm
0.840108 0.17502 0.021389 0.0129744
Efficiency with pileup  for #Delta Z = 0.20 mm
0.840108 0.17502 0.021389 0.0129744
Efficiency with pileup  for #Delta Z = 0.20 mm
0.840108 0.17502 0.021389 0.0129744
Efficiency with pileup  for #Delta Z = 0.20 mm
0.886483 0.158923 0.0223464 0.0140768
Efficiency with pileup (Truth) for #Delta Z = 0.20 mm
0.840108 0.17502 0.0207591 0.0129833
Efficiency with pileup (Truth) for #Delta Z = 0.20 mm
0.840108 0.17502 0.0207591 0.0129833
Efficiency with pileup (Truth) for #Delta Z = 0.20 mm
0.840108 0.17502 0.021389 0.0129744
Efficiency with pileup (Truth) for #Delta Z = 0.20 mm
0.886483 0.158923 0.0223464 0.0140768
